Final_Project
…
## Parsed with column specification:
## cols(
##   .default = col_double(),
##   PRIMARY_KEY = col_character(),
##   STATE = col_character()
## )

## See spec(...) for full column specifications.

These are the libraries and datasets that we will be making use of. Tidyverse is a very useful library, it makes if far easier to manipulate data. stringr allows us to easily interact with strings, which most data is. knitr also allows for easier data manipulation. Finally, pracma provides the strcmp() function, which allows for easy comparison for strings as == is incorrect when dealing with them.

All_Education_Data

## # A tibble: 1,492 x 25
##    PRIMARY_KEY STATE  YEAR ENROLL TOTAL_REVENUE FEDERAL_REVENUE
##    <chr>       <chr> <dbl>  <dbl>         <dbl>           <dbl>
##  1 1992_ALABA ALAB  1992     NA       2678885          304177
##  2 1992_ALASKA ALAS  1992     NA       1049591          106780
##  3 1992_ARIZO ARIZ  1992     NA       3258079          297888
##  4 1992_ARKAN ARKA  1992     NA       1711959          178571
##  5 1992_CALIF CALI  1992     NA      26260025         2072470
##  6 1992_COLOR COLO  1992     NA       3185173          163253
##  7 1992_CONNE CONN  1992     NA       3834302          143542
##  8 1992_DELAW DELA  1992     NA        645233           45945
##  9 1992_DISTR DIST  1992     NA        709480           64749
## 10 1992_FLORI FLOR  1992     NA      11506299          788420
## #  with 1,482 more rows, and 19 more variables: STATE_REVENUE <dbl>,
## #   LOCAL_REVENUE <dbl>, TOTAL_EXPENDITURE <dbl>,
## #   INSTRUCTION_EXPENDITURE <dbl>, SUPPORT_SERVICES_EXPENDITURE <dbl>,
## #   OTHER_EXPENDITURE <dbl>, CAPITAL_OUTLAY_EXPENDITURE <dbl>,
## #   GRADES_PK_G <dbl>, GRADES_KG_G <dbl>, GRADES_4_G <dbl>,
## #   GRADES_8_G <dbl>, GRADES_12_G <dbl>, GRADES_1_8_G <dbl>,
## #   GRADES_9_12_G <dbl>, GRADES_ALL_G <dbl>, AVG_MATH_4_SCORE <dbl>,
## #   AVG_MATH_8_SCORE <dbl>, AVG_READING_4_SCORE <dbl>,
## #   AVG_READING_8_SCORE <dbl>
…
AVG_MATH_4_SCORE = The states average score for fourth graders taking the NAEP math exam.
 AVG_MATH_8_SCORE = The states average score for eight graders taking the NAEP math exam.
 AVG_READING_4_SCORE = The states average score for fourth graders taking the NAEP reading exam.
 AVG_READING_8_SCORE = The states average score for eighth graders taking the NAEP reading exam.

We first need to define the timespan that we should be looking at which is 1995-2015. We also need to ensure that we are looking at the same data for every year, in this case, only the data from individual states instead of various other groups who reported data in this dataset.

# We start by setting the limits of the years. We then remove everything that is not one of the 50 states.   
Education_Data <- All_Education_Data %>% 
  filter(YEAR >= 1995 & YEAR <= 2015) %>%
  filter(STATE != "AMERICAN_SAMOA" & STATE != "AS" & STATE != "BI" & STATE != "BIE" & STATE!="BUREAU_OF_INDIAN_AFFAIRS"&STATE!="BUREAU_OF_INDIAN_EDUCATIO"&STATE!="BUREAU_OF_INDIAN_EDUCATION"&STATE!="COMMONWEALTH_OF_MARIANAS"&STATE!="DD"&STATE!="DOD"&STATE!="DOD_-_DOMESTIC"&STATE!="DOD_-_FOREIGN"&STATE!="DOD_-_OVERSEAS"&STATE!="DOD_(OVERSEAS_AND_DOMESTIC_COMBINED)"&STATE!="DOD_DOMESTIC"&STATE!="DOD_OVERSEAS"&STATE!="GU"&STATE!="GUAM"&STATE!="MP"&STATE!="PR"&STATE!="VI"&STATE!="VIRGIN_ISLANDS"&STATE!="NORTHERN_MARIANAS"&STATE!="PUERTO_RICO"&STATE!="DISTRICT_OF_COLUMBIA"&STATE!="DEPARTMENT_OF_DEFENSE"&STATE!="DEPARTMENT_OF_DEFENSE_EDUCATION_ACTIVITY"&STATE!="NORTHERN_MARIANA_ISLANDS"&STATE!="U.S._VIRGIN_ISLANDS")
Education_Data

## # A tibble: 1,052 x 25
##    PRIMARY_KEY STATE  YEAR ENROLL TOTAL_REVENUE FEDERAL_REVENUE
##    <chr>       <chr> <dbl>  <dbl>         <dbl>           <dbl>
##  1 1995_ALABA ALAB  1995 7.27e5       3367437          328957
##  2 1995_ALASKA ALAS  1995 1.25e5       1117068          123037
##  3 1995_ARIZO ARIZ  1995 7.35e5       3815218          376437
##  4 1995_ARKAN ARKA  1995 4.48e5       2057550          197556
##  5 1995_CALIF CALI  1995 5.30e6      29512214         2612241
##  6 1995_COLOR COLO  1995 6.40e5       3709875          201341
##  7 1995_CONNE CONN  1995 4.90e5       4420632          147466
##  8 1995_DELAW DELA  1995 1.07e5        802018           51682
##  9 1995_FLORI FLOR  1995 2.11e6      13242710          938814
## 10 1995_GEORG GEOR  1995 1.27e6       7052825          458452
## #  with 1,042 more rows, and 19 more variables: STATE_REVENUE <dbl>,
## #   LOCAL_REVENUE <dbl>, TOTAL_EXPENDITURE <dbl>,
## #   INSTRUCTION_EXPENDITURE <dbl>, SUPPORT_SERVICES_EXPENDITURE <dbl>,
## #   OTHER_EXPENDITURE <dbl>, CAPITAL_OUTLAY_EXPENDITURE <dbl>,
## #   GRADES_PK_G <dbl>, GRADES_KG_G <dbl>, GRADES_4_G <dbl>,
## #   GRADES_8_G <dbl>, GRADES_12_G <dbl>, GRADES_1_8_G <dbl>,
## #   GRADES_9_12_G <dbl>, GRADES_ALL_G <dbl>, AVG_MATH_4_SCORE <dbl>,
## #   AVG_MATH_8_SCORE <dbl>, AVG_READING_4_SCORE <dbl>,
## #   AVG_READING_8_SCORE <dbl>
…
Education_Data<-Education_Data %>% 
  filter(PRIMARY_KEY!="2008_VIRGINIA") %>% 
  rbind(newRow)
Education_Data

## # A tibble: 1,050 x 25
##    PRIMARY_KEY STATE  YEAR ENROLL TOTAL_REVENUE FEDERAL_REVENUE
##    <chr>       <chr> <dbl>  <dbl>         <dbl>           <dbl>
##  1 1995_ALABA ALAB  1995 7.27e5       3367437          328957
##  2 1995_ALASKA ALAS  1995 1.25e5       1117068          123037
##  3 1995_ARIZO ARIZ  1995 7.35e5       3815218          376437
##  4 1995_ARKAN ARKA  1995 4.48e5       2057550          197556
##  5 1995_CALIF CALI  1995 5.30e6      29512214         2612241
##  6 1995_COLOR COLO  1995 6.40e5       3709875          201341
##  7 1995_CONNE CONN  1995 4.90e5       4420632          147466
##  8 1995_DELAW DELA  1995 1.07e5        802018           51682
##  9 1995_FLORI FLOR  1995 2.11e6      13242710          938814
## 10 1995_GEORG GEOR  1995 1.27e6       7052825          458452
## #  with 1,040 more rows, and 19 more variables: STATE_REVENUE <dbl>,
## #   LOCAL_REVENUE <dbl>, TOTAL_EXPENDITURE <dbl>,
## #   INSTRUCTION_EXPENDITURE <dbl>, SUPPORT_SERVICES_EXPENDITURE <dbl>,
## #   OTHER_EXPENDITURE <dbl>, CAPITAL_OUTLAY_EXPENDITURE <dbl>,
## #   GRADES_PK_G <dbl>, GRADES_KG_G <dbl>, GRADES_4_G <dbl>,
## #   GRADES_8_G <dbl>, GRADES_12_G <dbl>, GRADES_1_8_G <dbl>,
## #   GRADES_9_12_G <dbl>, GRADES_ALL_G <dbl>, AVG_MATH_4_SCORE <dbl>,
## #   AVG_MATH_8_SCORE <dbl>, AVG_READING_4_SCORE <dbl>,
## #   AVG_READING_8_SCORE <dbl>
…
